NBA Reproducible Data analysis Project
…
Dropping missing values.

player_stats_clean <- player_stats %>% drop_na()
player_stats_clean

## # A tibble: 629 x 29
##    player_name Pos     Age Tm        G    GS    MP    FG   FGA `FG%`  `3P` `3PA`
##    <chr>       <chr> <dbl> <chr> <dbl> <dbl> <dbl> <dbl> <dbl> <dbl> <dbl> <dbl>
##  1 Alex Abrin SG       25 OKC      31     2   588    56   157 0.357    41   127
##  2 Quincy Acy  PF       28 PHO      10     0   123     4    18 0.222     2    15
##  3 Jaylen Ada PG       22 ATL      34     1   428    38   110 0.345    25    74
##  4 Steven Ada C        25 OKC      80    80  2669   481   809 0.595     0     2
##  5 Bam Adebayo C        21 MIA      82    28  1913   280   486 0.576     3    15
##  6 Deng Adel   SF       21 CLE      19     3   194    11    36 0.306     6    23
##  7 DeVaughn A SG       25 DEN       7     0    22     3    10 0.3       0     4
##  8 LaMarcus A C        33 SAS      81    81  2687   684  1319 0.519    10    42
##  9 Rawle Alki SG       21 CHI      10     1   120    13    39 0.333     3    12
## 10 Grayson Al SG       23 UTA      38     2   416    67   178 0.376    32    99
## #  with 619 more rows, and 17 more variables: 3P% <dbl>, 2P <dbl>, 2PA <dbl>,
## #   2P% <dbl>, eFG% <dbl>, FT <dbl>, FTA <dbl>, FT% <dbl>, ORB <dbl>,
## #   DRB <dbl>, TRB <dbl>, AST <dbl>, STL <dbl>, BLK <dbl>, TOV <dbl>, PF <dbl>,
## #   PTS <dbl>

Merging player salaries data and player statistics clean data.

player_data <- full_join(player_salaries, player_stats_clean, by = "player_name")
player_data

## # A tibble: 746 x 31
##    player_id player_name  salary Pos     Age Tm        G    GS    MP    FG   FGA
##        <dbl> <chr>         <dbl> <chr> <dbl> <chr> <dbl> <dbl> <dbl> <dbl> <dbl>
##  1         1 Alex Abrines 3.67e6 SG       25 OKC      31     2   588    56   157
##  2         2 Quincy Acy   2.14e5 PF       28 PHO      10     0   123     4    18
##  3         3 Steven Adams 2.42e7 C        25 OKC      80    80  2669   481   809
##  4         4 Jaylen Adams 2.37e5 PG       22 ATL      34     1   428    38   110
##  5         5 Bam Adebayo  2.96e6 C        21 MIA      82    28  1913   280   486
##  6         6 Deng Adel    7.72e4 SF       21 CLE      19     3   194    11    36
##  7         7 Alexis Ajin 5.29e6 <NA>     NA <NA>     NA    NA    NA    NA    NA
##  8         8 DeVaughn Ak 7.72e4 SG       25 DEN       7     0    22     3    10
##  9         9 Cole Aldrich 2.00e6 <NA>     NA <NA>     NA    NA    NA    NA    NA
## 10        10 LaMarcus Al 2.23e7 C        33 SAS      81    81  2687   684  1319
## #  with 736 more rows, and 20 more variables: FG% <dbl>, 3P <dbl>, 3PA <dbl>,
## #   3P% <dbl>, 2P <dbl>, 2PA <dbl>, 2P% <dbl>, eFG% <dbl>, FT <dbl>, FTA <dbl>,
## #   FT% <dbl>, ORB <dbl>, DRB <dbl>, TRB <dbl>, AST <dbl>, STL <dbl>,
## #   BLK <dbl>, TOV <dbl>, PF <dbl>, PTS <dbl>
…
player_data <- player_data[!duplicated(player_data$player_id), ]
player_data 

## # A tibble: 577 x 31
##    player_id player_name  salary Pos     Age Tm        G    GS    MP    FG   FGA
##        <dbl> <chr>         <dbl> <chr> <dbl> <chr> <dbl> <dbl> <dbl> <dbl> <dbl>
##  1         1 Alex Abrines 3.67e6 SG       25 OKC      31     2   588    56   157
##  2         2 Quincy Acy   2.14e5 PF       28 PHO      10     0   123     4    18
##  3         3 Steven Adams 2.42e7 C        25 OKC      80    80  2669   481   809
##  4         4 Jaylen Adams 2.37e5 PG       22 ATL      34     1   428    38   110
##  5         5 Bam Adebayo  2.96e6 C        21 MIA      82    28  1913   280   486
##  6         6 Deng Adel    7.72e4 SF       21 CLE      19     3   194    11    36
##  7         7 Alexis Ajin 5.29e6 <NA>     NA <NA>     NA    NA    NA    NA    NA
##  8         8 DeVaughn Ak 7.72e4 SG       25 DEN       7     0    22     3    10
##  9         9 Cole Aldrich 2.00e6 <NA>     NA <NA>     NA    NA    NA    NA    NA
## 10        10 LaMarcus Al 2.23e7 C        33 SAS      81    81  2687   684  1319
## #  with 567 more rows, and 20 more variables: FG% <dbl>, 3P <dbl>, 3PA <dbl>,
## #   3P% <dbl>, 2P <dbl>, 2PA <dbl>, 2P% <dbl>, eFG% <dbl>, FT <dbl>, FTA <dbl>,
## #   FT% <dbl>, ORB <dbl>, DRB <dbl>, TRB <dbl>, AST <dbl>, STL <dbl>,
## #   BLK <dbl>, TOV <dbl>, PF <dbl>, PTS <dbl>

Exploratory Data Analysis:

Missing values introduced after the two datasets are merged. The missing values are mostly from players with no defined position so will also drop them

player_data_tidy <- player_data %>% drop_na()
player_data_tidy

## # A tibble: 459 x 31
##    player_id player_name  salary Pos     Age Tm        G    GS    MP    FG   FGA
##        <dbl> <chr>         <dbl> <chr> <dbl> <chr> <dbl> <dbl> <dbl> <dbl> <dbl>
##  1         1 Alex Abrines 3.67e6 SG       25 OKC      31     2   588    56   157
##  2         2 Quincy Acy   2.14e5 PF       28 PHO      10     0   123     4    18
##  3         3 Steven Adams 2.42e7 C        25 OKC      80    80  2669   481   809
##  4         4 Jaylen Adams 2.37e5 PG       22 ATL      34     1   428    38   110
##  5         5 Bam Adebayo  2.96e6 C        21 MIA      82    28  1913   280   486
##  6         6 Deng Adel    7.72e4 SF       21 CLE      19     3   194    11    36
##  7         8 DeVaughn Ak 7.72e4 SG       25 DEN       7     0    22     3    10
##  8        10 LaMarcus Al 2.23e7 C        33 SAS      81    81  2687   684  1319
##  9        11 Rawle Alkins 7.72e4 SG       21 CHI      10     1   120    13    39
## 10        12 Grayson All 2.08e6 SG       23 UTA      38     2   416    67   178
## #  with 449 more rows, and 20 more variables: FG% <dbl>, 3P <dbl>, 3PA <dbl>,
## #   3P% <dbl>, 2P <dbl>, 2PA <dbl>, 2P% <dbl>, eFG% <dbl>, FT <dbl>, FTA <dbl>,
## #   FT% <dbl>, ORB <dbl>, DRB <dbl>, TRB <dbl>, AST <dbl>, STL <dbl>,
## #   BLK <dbl>, TOV <dbl>, PF <dbl>, PTS <dbl>
…
Features extraction. Extracting the variables to be used for the modeling

model_data <- player_data_tidy %>%
  select(c(player_name,salary,Pos,Age,Tm,G,GS,MP,FG,FGA,"3P","3PA","2P","2PA",FT,FTA,DRB,TRB,TOV,PTS))
model_data

## # A tibble: 459 x 20
##    player_name      salary Pos     Age Tm        G    GS    MP    FG   FGA  `3P`
##    <chr>             <dbl> <chr> <dbl> <chr> <dbl> <dbl> <dbl> <dbl> <dbl> <dbl>
##  1 Alex Abrines     3.67e6 SG       25 OKC      31     2   588    56   157    41
##  2 Quincy Acy       2.14e5 PF       28 PHO      10     0   123     4    18     2
##  3 Steven Adams     2.42e7 C        25 OKC      80    80  2669   481   809     0
##  4 Jaylen Adams     2.37e5 PG       22 ATL      34     1   428    38   110    25
##  5 Bam Adebayo      2.96e6 C        21 MIA      82    28  1913   280   486     3
##  6 Deng Adel        7.72e4 SF       21 CLE      19     3   194    11    36     6
##  7 DeVaughn Akoon- 7.72e4 SG       25 DEN       7     0    22     3    10     0
##  8 LaMarcus Aldrid 2.23e7 C        33 SAS      81    81  2687   684  1319    10
##  9 Rawle Alkins     7.72e4 SG       21 CHI      10     1   120    13    39     3
## 10 Grayson Allen    2.08e6 SG       23 UTA      38     2   416    67   178    32
## #  with 449 more rows, and 9 more variables: 3PA <dbl>, 2P <dbl>, 2PA <dbl>,
## #   FT <dbl>, FTA <dbl>, DRB <dbl>, TRB <dbl>, TOV <dbl>, PTS <dbl>
…
Finding players for each of the positions. Conditions used to filter players: a player must atleast have played a minimum of 50 games, 1000 minute played, salary between 1 Million and 10 Million and minimum points of 1000.

Rec_data <- player_data_tidy %>%
  select(c(player_name,Tm,salary,Pos,G,GS,MP,PTS)) %>% arrange(desc(PTS))
Rec_data

## # A tibble: 459 x 8
##    player_name           Tm      salary Pos       G    GS    MP   PTS
##    <chr>                 <chr>    <dbl> <chr> <dbl> <dbl> <dbl> <dbl>
##  1 James Harden          HOU   30570000 PG       78    78  2867  2818
##  2 Paul George           OKC   30560700 SF       77    77  2841  2159
##  3 Kemba Walker          CHO   12000000 PG       82    82  2863  2102
##  4 Bradley Beal          WAS   25434262 SG       82    82  3028  2099
##  5 Damian Lillard        POR   27977689 PG       80    80  2838  2067
##  6 Kevin Durant          GSW   30000000 SF       78    78  2702  2027
##  7 Giannis Antetokounmpo MIL   24157304 PF       72    72  2358  1994
##  8 Stephen Curry         GSW   37457154 PG       69    69  2331  1881
##  9 Karl-Anthony Towns    MIN    7839435 C        77    77  2545  1880
## 10 Blake Griffin         DET   31873932 PF       75    75  2622  1841
## #  with 449 more rows
…
